…
left_join(x,y,by=join_by(colname1==colname2))

``` r
read_csv("/Users/kenjinchang/github/seasonality-of-us-meat-consumption/data/county_data.csv") 
```

    ## Rows: 2305 Columns: 5
    ## ── Column specification ────────────────────────────────────────────────────────
    ## Delimiter: ","
    ## chr (5): county, total_subsidies_1995_2021, perc_state_total, state_abb, state
    ## 
    ## ℹ Use `spec()` to retrieve the full column specification for this data.
    ## ℹ Specify the column types or set `show_col_types = FALSE` to quiet this message.

    ## # A tibble: 2,305 × 5
    ##    county                total_subsidies_1995_2021 perc_state_to…¹ state…² state
    ##    <chr>                 <chr>                     <chr>           <chr>   <chr>
    ##  1 Gaines County, Texas  $1,476,802,523            3.30%           TX      Texas
    ##  2 Hale County, Texas    $1,159,637,316            2.60%           TX      Texas
    ##  3 Dawson County, Texas  $1,110,737,641            2.50%           TX      Texas
    ##  4 Terry County, Texas   $987,748,081              2.20%           TX      Texas
    ##  5 Wharton County, Texas $954,867,910              2.10%           TX      Texas
    ##  6 Lamb County, Texas    $928,633,397              2.10%           TX      Texas
    ##  7 Floyd County, Texas   $877,686,118              2.00%           TX      Texas
    ##  8 Lubbock County, Texas $874,170,512              2.00%           TX      Texas
    ##  9 Lynn County, Texas    $830,835,732              1.90%           TX      Texas
    ## 10 Hockley County, Texas $830,765,051              1.90%           TX      Texas
    ## # … with 2,295 more rows, and abbreviated variable names ¹​perc_state_total,
    ## #   ²​state_abb
…
